module gitlab.com/noprysk-ua1/merge-mate

go 1.20

require github.com/spf13/cobra v1.6.1

require (
	github.com/inconshreveable/mousetrap v1.0.1 // indirect
	github.com/spf13/pflag v1.0.5 // indirect
)
